<svg width="118" height="119" viewBox="0 0 118 119" fill="none" xmlns="http://www.w3.org/2000/svg">
<path d="M101 1H1V101H101V1Z" stroke="#008AEE" stroke-width="2"/>
<path d="M117 18H17V118H117V18Z" stroke="#ED0909" stroke-width="2"/>
</svg>
